…
O querido Daniel Duque trouxe um problema para o meu colo e eu gostei tanto da simplicidade da solução em relação à abordagem mais óbvia de montar loops dentro de loops que decidi aproveitar para espalhar a palavra da programação funcional. Não por inteiro, apenas outra concepção de operações repetidas.

Antes do problema interessante do Daniel, um problema comum de simulações estatísticas como motivação. Digamos que nós queremos simular várias normais com médias diferentes. Com loops:

library(tidyverse)

n <- 1000

(dados_medias <- tibble(media = seq(-5, 5, .01)))

## # A tibble: 1,001 x 1
##    media
##    <dbl>
##  1 -5   
##  2 -4.99
##  3 -4.98
##  4 -4.97
##  5 -4.96
##  6 -4.95
##  7 -4.94
##  8 -4.93
##  9 -4.92
## 10 -4.91
## # … with 991 more rows

lista <- as.list(rep(0, nrow(dados_medias)))

for(i in 1:nrow(dados_medias)) {
  
 lista[[i]] <- rnorm(n = n, 
                     mean = dados_medias$media[i])

}

dados_medias$sims <- lista

(dados_finais <- unnest(dados_medias, sims))

## # A tibble: 1,001,000 x 2
##    media  sims
##    <dbl> <dbl>
##  1    -5 -5.49
##  2    -5 -4.98
##  3    -5 -4.25
##  4    -5 -8.70
##  5    -5 -4.01
##  6    -5 -4.93
##  7    -5 -4.28
##  8    -5 -4.59
##  9    -5 -6.31
## 10    -5 -5.49
## # … with 1,000,990 more rows
…
map_dfc(1:10,
        ~ rnorm(n = 100, mean = .x))

## # A tibble: 100 x 10
##       V1    V2    V3    V4    V5    V6    V7    V8    V9   V10
##    <dbl> <dbl> <dbl> <dbl> <dbl> <dbl> <dbl> <dbl> <dbl> <dbl>
##  1 1.50  2.41   2.20  3.45  5.12  5.59  7.49  8.21  9.89 11.9 
##  2 0.360 0.702  3.47  4.34  5.41  5.69  7.05  7.27  9.51  8.33
##  3 0.334 3.11   2.80  5.80  4.58  7.53  7.39  9.03  7.60  9.45
##  4 0.589 1.05   1.12  7.62  4.75  6.85  6.95  9.77  7.12  8.77
##  5 0.982 0.510  3.31  5.55  6.44  4.99  7.83  8.65  9.40 11.2 
##  6 2.82  0.689  2.34  3.20  6.59  5.25  7.54  8.75  9.94  8.91
##  7 2.94  0.704  4.18  4.98  4.80  7.09  6.50  8.66  7.73 10.2 
##  8 2.65  2.06   2.48  3.38  7.17  7.24  5.83  8.16 10.7  11.2 
##  9 1.28  2.80   4.89  3.56  3.82  6.80  6.85  7.78  9.34  9.05
## 10 0.284 3.48   3.26  5.94  4.87  6.24  6.52  9.77  9.49 11.1 
## # … with 90 more rows
…
## [1] TRUE

is.function(`<-`) # o operador de designação é uma função?

## [1] TRUE

is.function(`%>%`) # pipe é uma função?

## [1] TRUE

E bem, como podemos substituir o nosso loop de exemplo com esse raciocínio? mutate do dplyr recebe um dataframe e causa uma mutação em seu estado (adiciona ou mata variáveis, em bom português), já unnest puxa dados aninhados para fora. Vamos construir então passo a passo:

tibble(media = seq(1, 5, .001)) 

## # A tibble: 4,001 x 1
##    media
##    <dbl>
##  1  1   
##  2  1.00
##  3  1.00
##  4  1.00
##  5  1.00
##  6  1.00
##  7  1.01
##  8  1.01
##  9  1.01
## 10  1.01
## # … with 3,991 more rows

tibble(media = seq(1, 5, .001)) %>%
  mutate(sims = map(media, ~ rnorm(1000, .x)))

## # A tibble: 4,001 x 2
##    media sims         
##    <dbl> <list>       
##  1  1    <dbl [1,000]>
##  2  1.00 <dbl [1,000]>
##  3  1.00 <dbl [1,000]>
##  4  1.00 <dbl [1,000]>
##  5  1.00 <dbl [1,000]>
##  6  1.00 <dbl [1,000]>
##  7  1.01 <dbl [1,000]>
##  8  1.01 <dbl [1,000]>
##  9  1.01 <dbl [1,000]>
## 10  1.01 <dbl [1,000]>
## # … with 3,991 more rows

tibble(media = seq(1, 5, .001)) %>%
  mutate(sims = map(media, ~ rnorm(1000, .x))) %>%
  unnest(sims)

## # A tibble: 4,001,000 x 2
##    media  sims
##    <dbl> <dbl>
##  1     1 0.224
##  2     1 2.28 
##  3     1 0.500
##  4     1 1.83 
##  5     1 1.24 
##  6     1 0.935
##  7     1 0.577
##  8     1 1.84 
##  9     1 1.08 
## 10     1 1.99 
## # … with 4,000,990 more rows

Não é tão mais simples que fazer um loop? Existe um custo mental inicial de pensar sobre o código de outro jeito, mas ele logo se paga em soluções mais rápidas e baratas para problemas de todo tipo. Programação funcional te permite ser mais expressivo, fazer mais falando menos.

Lembra que ao invés de usar i para nos referir ao valor da iteração, usamos .x? Eu já te dei os motivos, antes de mostrar como isso tudo se aplica num problema prático muito típico, quero mostrar por quê o .x faz sentido.

Digamos que agora, para cada média sendo usada na simulação dos dados eu queria variar também o desvio-padrão? Estamos simulando dados de uma normal tirado de uma “grade” contendo as combinações de médias e desvios-padrão. Pense um pouco em como abordar esse problema com loops. Você vai adicionar mais uma camada de loop, provavelmente irá se referir ao segundo índice como j e terá que acompanhar mentalmente duas camadas de peças móveis. Não é muito agradável e o problema piora exponencialmente com cada camada extra adicionada.

Uma solução muito mais elegante te aguarda usando map2(), que serve para - como o nome entrga - iterar em dois objetos, pmap() faz isso para um número arbitrário. Para criar a grade com os dados usamos expand_grid(), que gera as combinações. Construindo passo a passo:

expand_grid(media = seq(1, 5, .1), sd = seq(1, 5, .1)) # as combinações

## # A tibble: 1,681 x 2
##    media    sd
##    <dbl> <dbl>
##  1     1   1  
##  2     1   1.1
##  3     1   1.2
##  4     1   1.3
##  5     1   1.4
##  6     1   1.5
##  7     1   1.6
##  8     1   1.7
##  9     1   1.8
## 10     1   1.9
## # … with 1,671 more rows

expand_grid(media = seq(1, 5, .1), sd = seq(1, 5, .1)) %>%
  mutate(
    sims = map2(
      .x = media,
      .y = sd,
      ~ rnorm(n = 100, mean = .x, sd = .y))
  ) # criando a coluna

## # A tibble: 1,681 x 3
##    media    sd sims       
##    <dbl> <dbl> <list>     
##  1     1   1   <dbl [100]>
##  2     1   1.1 <dbl [100]>
##  3     1   1.2 <dbl [100]>
##  4     1   1.3 <dbl [100]>
##  5     1   1.4 <dbl [100]>
##  6     1   1.5 <dbl [100]>
##  7     1   1.6 <dbl [100]>
##  8     1   1.7 <dbl [100]>
##  9     1   1.8 <dbl [100]>
## 10     1   1.9 <dbl [100]>
## # … with 1,671 more rows

expand_grid(media = seq(1, 5, .1), sd = seq(1, 5, .1)) %>%
  mutate(
    sims = map2(
      .x = media,
      .y = sd,
      ~ rnorm(n = 5, mean = .x, sd = .y))
  ) %>%
  unnest(sims)

## # A tibble: 8,405 x 3
##    media    sd   sims
##    <dbl> <dbl>  <dbl>
##  1     1   1    1.26 
##  2     1   1    1.97 
##  3     1   1   -0.732
##  4     1   1    1.84 
##  5     1   1   -0.181
##  6     1   1.1  2.15 
##  7     1   1.1  0.601
##  8     1   1.1  0.539
##  9     1   1.1  1.61 
## 10     1   1.1  0.322
## # … with 8,395 more rows
…
Antes de prosseguir, pense um pouco em como você resolveria isso com loops. Se estiver com paciência, esboce algumas soluções. Vamos gerar dados falsos:

library(lorem)
library(glue)

(tabela <- tibble(PL = glue("{ipsum_starts(30)} {ipsum_starts(30)}"),
                  risco = sample(c("alto", "baixo", "médio"), 
                                 size = length(PL), 
                                 replace = TRUE),
                  impacto = sample(c("alto", "baixo", "médio"), 
                                   size = length(PL),
                                   replace = TRUE)
                  ))

## # A tibble: 30 x 3
##    PL                risco impacto
##    <glue>            <chr> <chr>  
##  1 sit ipsum         alto  alto   
##  2 adipiscing sit    baixo alto   
##  3 consectetur elit  baixo baixo  
##  4 amet amet         baixo alto   
##  5 amet consectetur  alto  médio  
##  6 sit amet          baixo baixo  
##  7 amet adipiscing   médio médio  
##  8 adipiscing amet   médio alto   
##  9 consectetur dolor médio baixo  
## 10 elit sit          médio baixo  
## # … with 20 more rows
…
