Como eu rodei Stata dentro do R para replicar um paper • Pedro Cavalcante
…
temp = tempfile() ## geramos um arquivo temporário
download.file("https://www.aeaweb.org/doi/10.1257/aer.20171339.data",
              destfile = temp, mode = "wb") # puxamos diretamente os dados do repositório da AEA

dados = unzip(temp, file = "analysis.dta") # descomprimimos
dados = as.tibble(read.dta13(dados)) #lemos como um tibble

dim(dados)

## [1] 4687   55

dados #exploramos para garantir que está tudo certo

## # A tibble: 4,687 x 55
##       sid  year                      aid log_salary_governor_gbp
##  * <fctr> <dbl>                   <fctr>                   <dbl>
##  1   Aden  1938    Bernard Rawdon Reilly                8.086411
##  2   Aden  1937    Bernard Rawdon Reilly                8.086411
##  3   Aden  1939    Bernard Rawdon Reilly                8.086411
##  4   Aden  1944        John Hathorn Hall                8.086411
##  5   Aden  1941        John Hathorn Hall                8.086411
##  6   Aden  1942        John Hathorn Hall                8.086411
##  7   Aden  1940        John Hathorn Hall                8.086411
##  8   Aden  1943        John Hathorn Hall                8.086411
##  9   Aden  1946 Reginald Stuart Champion                8.086411
## 10   Aden  1947 Reginald Stuart Champion                8.086411
## # ... with 4,677 more rows, and 51 more variables:
## #   log_rev_total_gbp <dbl>, log_rev_customs_gbp <dbl>,
## #   log_rev_internal_gbp <dbl>, log_exp_total_gbp <dbl>,
## #   log_exp_tax_gbp <dbl>, log_exp_pubworks_gbp <dbl>,
## #   log_population_imputed <dbl>, shared_ancestry <dbl>, both_arist <dbl>,
## #   both_oxbridge <dbl>, both_eton <dbl>, connected <dbl>,
## #   age_entry <dbl>, cambridge <int>, oxford <int>, eton <int>,
## #   peerage <dbl>, civilservant <dbl>, politician <dbl>, military <dbl>,
## #   ordinance_total <dbl>, ordinance_health <dbl>,
…
