Mas afinal, indústria importa? · AZUL
…
Beleza, sabemos agora que a variável de Valor Adicionado a Preços Constantes de 2005 está na moeda local e que a variável com nível de emprego está em milhares. Estamos interessados nelas.

(tenSector <- rio::import("https://www.rug.nl/ggdc/docs/10sd_jan15_2014.xlsx", sheet = 2) %>%
  as_tibble() %>%
  filter(Variable == "VA_Q05" | Variable == "EMP") %>% # mantém nível de emprego e valor adicionado 
  select(-`Region code`) %>% # redundante e com nome não-regular, melhor tirar
  gather("Sector", "Measure", -Country, -Region, -Year, -Variable) %>% # traz colunas de setores para linhas
  spread("Variable", "Measure") %>% # joga as variáveis para colunas
  mutate(EMP = EMP * 1000,
         VA_Q05 = VA_Q05 * 1000000) %>% # aplica a escala
  rename(VA = VA_Q05)) # apenas deixando o nome mais limpo

## # A tibble: 27,885 x 6
##    Country Region      Year Sector                                EMP         VA
##    <chr>   <chr>      <dbl> <chr>                               <dbl>      <dbl>
##  1 ARG     Latin Ame~  1950 Agriculture                        1.80e6    1.62e10
##  2 ARG     Latin Ame~  1950 Community, social and personal s~  4.11e5    7.02e 9
##  3 ARG     Latin Ame~  1950 Construction                       3.14e5    9.17e 9
##  4 ARG     Latin Ame~  1950 Finance, insurance, real estate ~  2.04e5    6.36e 9
##  5 ARG     Latin Ame~  1950 Government services                8.25e5    2.39e10
##  6 ARG     Latin Ame~  1950 Manufacturing                      1.60e6    4.04e10
##  7 ARG     Latin Ame~  1950 Mining                             3.27e4    1.99e 9
##  8 ARG     Latin Ame~  1950 Summation of sector GDP            6.54e6    1.38e11
##  9 ARG     Latin Ame~  1950 Trade, restaurants and hotels      8.90e5    2.44e10
## 10 ARG     Latin Ame~  1950 Transport, storage and communica~  4.25e5    7.55e 9
## # ... with 27,875 more rows

Já tratamos a variável com nível de emprego, agora vamos pega a taxa de câmbio real da Penn World Table, que vem no pacote pwt9. Note também que temos dados que deveriam ser a nível de país-ano-setor, mas um dos setores aqui é o total, o PIB. Vamos tira-lo das linhas e dedicar colunas para isso, assim teremos dados consistentes.

data("pwt9.1")

(pwt <- pwt9.1 %>%
  filter(year == 2005) %>% 
  select(isocode, pl_gdpo, xr) %>% # queremos país, nível de preços e taxa de câmbio 
  as_tibble() %>%
  filter(pl_gdpo > 0) %>% # removendo dados duvidosos
  rename(Country = isocode) %>%
  mutate(PPP = pl_gdpo * xr) %>% # obtendo o PPP 
  select(-pl_gdpo, -xr)) # temos um par país-câmbio real em 2005

## # A tibble: 182 x 2
##    Country     PPP
##    <fct>     <dbl>
##  1 ABW       1.01 
##  2 AGO      42.8  
##  3 AIA       1.85 
##  4 ALB      44.3  
##  5 ARE       1.56 
##  6 ARG       1.19 
##  7 ARM     149.   
##  8 ATG       2.54 
##  9 AUS       1.20 
## 10 AUT       0.798
## # ... with 172 more rows
…
