…
}

fatorial(4) # teste

## [1] 24

A agora a brincar:

(simulacao <- tibble(lambda = seq(25, 100, by = 0.1)) %>%
  mutate(L = map_dbl(
    lambda, 
    function(.x) sum(amostra*log(.x) - .x - log(map_dbl(amostra, fatorial)))
    )))

## # A tibble: 751 x 2
##    lambda       L
##     <dbl>   <dbl>
##  1   25   -17939.
##  2   25.1 -17814.
##  3   25.2 -17689.
##  4   25.3 -17566.
##  5   25.4 -17443.
##  6   25.5 -17321.
##  7   25.6 -17200.
##  8   25.7 -17080.
##  9   25.8 -16961.
## 10   25.9 -16843.
## # … with 741 more rows
…
