…
(tibble(
  dgp = # variável com o nome dos processos, o Y do nosso modelo
   sample(c("rnorm", "runif", "rexp", "rgamma"), # amostre um de 4 nomes 
          size = 10000, # 100000 vezes
          replace = TRUE), # com substituição
   moments = # variável momentos que irá conter uma lista de dataframes
       map(dgp, # itere sobre o vetor com nomes de dgps
           ~ first_kmoments(process_factory(.x)))) %>% 
  unnest(moments) -> # desaninha a lista de dataframes
  data)

## # A tibble: 10,000 x 21
##    dgp    moment_1 moment_2 moment_3 moment_4 moment_5 moment_6 moment_7
##    <chr>     <dbl>    <dbl>    <dbl>    <dbl>    <dbl>    <dbl>    <dbl>
##  1 runif  4.33e-17    0.139  9.89e-3  3.97e-2  7.03e-3  1.37e-2  3.79e-3
##  2 rexp  -2.53e-16   16.1    1.44e+2  2.72e+3  5.12e+4  1.05e+6  2.19e+7
##  3 rgam…  1.04e-16    0.496  3.40e-1  8.54e-1  1.24e+0  2.44e+0  4.33e+0
##  4 rnorm -1.07e-16    7.56   5.46e+0  1.71e+2  4.85e+2  6.63e+3  3.41e+4
##  5 runif  3.61e-17    1.40   4.41e-3  3.26e+0  1.61e-1  8.84e+0  1.13e+0
##  6 rexp  -1.42e-16   28.6    3.49e+2  7.47e+3  1.52e+5  3.22e+6  6.87e+7
##  7 rexp   1.11e-17    0.519  1.06e+0  3.31e+0  1.03e+1  3.28e+1  1.05e+2
##  8 rexp  -1.27e-16    2.92   8.14e+0  6.40e+1  4.72e+2  3.90e+3  3.27e+4
##  9 rnorm -7.77e-18    0.830 -1.68e-1  1.92e+0 -1.05e+0  6.77e+0 -6.00e+0
## 10 runif -1.78e-17    0.201 -1.06e-2  7.25e-2 -9.26e-3  3.19e-2 -7.02e-3
## # … with 9,990 more rows, and 13 more variables: moment_8 <dbl>,
## #   moment_9 <dbl>, moment_10 <dbl>, moment_11 <dbl>, moment_12 <dbl>,
## #   moment_13 <dbl>, moment_14 <dbl>, moment_15 <dbl>, moment_16 <dbl>,
## #   moment_17 <dbl>, moment_18 <dbl>, moment_19 <dbl>, moment_20 <dbl>
…
