{tidyverse}, Simulações e Processamento de Séries Temporais | AZUL
…
}

Isso não é necessariamente ruim, o objetivo final de código em produção é desencadear efeitos colaterais, mas isso leva à código com consequências menos claras e por isso eu aprendi nos manuais e com os erros a evitar impureza. Pelo exercício vou tentar ilustrar uma aplicação onde impureza traz ergonomia.

É bem comum que eu simule dados de processos estocásticos aqui. Um AR1 com \(\beta = 1\), por exemplo:

library(tidyverse)

N <- 1000

(data <- tibble(t = 1:N,
                y = accumulate(rnorm(N), ~ .x + .y)))

## # A tibble: 1,000 x 2
##        t     y
##    <int> <dbl>
##  1     1 0.229
##  2     2 1.68 
##  3     3 1.94 
##  4     4 3.28 
##  5     5 3.28 
##  6     6 3.03 
##  7     7 4.01 
##  8     8 4.09 
##  9     9 3.75 
## 10    10 6.03 
## # … with 990 more rows
…
