…
expfoo <- function(base) { # uma fábrica de funções
  
 function(x) { base^x }
  
}

(sim <- tibble(A = seq(0.1, 10, 0.05)) %>%
  mutate(foo = map(A, ~ expfoo(.x)), # geramos uma lista de funções
         y = map(foo, ~ .x(seq(-1, 1, .1))), # geramos uma lista aplicando as funções
         x = rep(list(seq(-1, 1, .1)), nrow(.))) %>% 
  select(A, x, y) %>%
  unnest(c(x,y)))

## # A tibble: 4,179 x 3
##        A      x     y
##    <dbl>  <dbl> <dbl>
##  1   0.1 -1     10   
##  2   0.1 -0.9    7.94
##  3   0.1 -0.8    6.31
##  4   0.1 -0.7    5.01
##  5   0.1 -0.6    3.98
##  6   0.1 -0.5    3.16
##  7   0.1 -0.400  2.51
##  8   0.1 -0.300  2.00
##  9   0.1 -0.200  1.58
## 10   0.1 -0.100  1.26
## # … with 4,169 more rows
…
