…
Beleza, sabemos agora que a variável de Valor Adicionado a Preços Constantes de 2005 está na moeda local e que a variável com nível de emprego está em milhares. Estamos interessados nelas.

(tenSector <- rio::import("https://www.rug.nl/ggdc/docs/10sd_jan15_2014.xlsx", sheet = 2) %>%
  as_tibble() %>%
  filter(Variable == "VA_Q05" | Variable == "EMP") %>% # mant?m n?vel de emprego e valor adicionado 
  select(-`Region code`) %>% # redundante e com nome n?o-regular, melhor tirar
  gather("Sector", "Measure", -Country, -Region, -Year, -Variable) %>% # traz colunas de setores para linhas
  spread("Variable", "Measure") %>% # joga as vari?veis para colunas
  mutate(EMP = EMP * 1000,
         VA_Q05 = VA_Q05 * 1000000,
         Sector = abbreviate(Sector, minlength = 7)) %>% # aplica a escala
  rename(VA = VA_Q05)) # apenas deixando o nome mais limpo

## # A tibble: 27,885 x 6
##    Country Region         Year Sector       EMP            VA
##    <chr>   <chr>         <dbl> <chr>      <dbl>         <dbl>
##  1 ARG     Latin America  1950 Agrcltr 1799565.  16178508000.
##  2 ARG     Latin America  1950 Cm,saps  410892.   7017988589.
##  3 ARG     Latin America  1950 Cnstrct  314106.   9170823891.
##  4 ARG     Latin America  1950 Fireabs  203838.   6359568994.
##  5 ARG     Latin America  1950 Gvrnmns  824921.  23892830458.
##  6 ARG     Latin America  1950 Mnfctrn 1603249.  40415974714.
##  7 ARG     Latin America  1950 Mining    32719.   1993128433.
##  8 ARG     Latin America  1950 SmosGDP 6543872. 137555524612.
##  9 ARG     Latin America  1950 Trd,rah  889967.  24402991371.
## 10 ARG     Latin America  1950 Trn,sac  425352.   7549840286.
## # ... with 27,875 more rows
…
data("pwt9.1")

# TODO adicionar explicativas

(pwt <- pwt9.1 %>%
  filter(year == 2005) %>% 
  select(isocode, pl_gdpo, xr) %>% # queremos país, nível de preços e taxa de câmbio 
  as_tibble() %>%
  filter(pl_gdpo > 0) %>% # removendo dados duvidosos
  rename(Country = isocode) %>%
  mutate(PPP = pl_gdpo * xr) %>% # obtendo o PPP 
  select(-pl_gdpo, -xr)) # temos um par país-câmbio real em 2005

## # A tibble: 182 x 2
##    Country     PPP
##    <fct>     <dbl>
##  1 ABW       1.01 
##  2 AGO      42.8  
##  3 AIA       1.85 
##  4 ALB      44.3  
##  5 ARE       1.56 
##  6 ARG       1.19 
##  7 ARM     149.   
##  8 ATG       2.54 
##  9 AUS       1.20 
## 10 AUT       0.798
## # ... with 172 more rows
…
  filter(Sector != "SmosGDP") %>% # retirando o agregado
  mutate(VA = VA/PPP) %>% 
  select(-PPP) %>%
  group_by(Year, Country) %>%
  mutate(totVA = sum(VA, na.rm = TRUE),
         totEMP = sum(EMP, na.rm = TRUE),
         VAperCapitaAgg = totVA / totEMP) %>% # valor adicionado per capita AGREGADO
  ungroup() %>%
  mutate(empShare = EMP / totEMP,
         vaShare = VA / totVA,
         VAperCapita = VA / EMP, # VA per capita do setor
         perCapitaShare = empShare*VAperCapita / VAperCapitaAgg) # partilha no VA per capita agregado do setor
)  

## # A tibble: 25,350 x 13
##    Country Region  Year Sector    EMP      VA   totVA totEMP VAperCapitaAgg
##    <chr>   <chr>  <dbl> <chr>   <dbl>   <dbl>   <dbl>  <dbl>          <dbl>
##  1 ARG     Latin~  1950 Agrcl~ 1.80e6 1.36e10 1.15e11 6.54e6         17640.
##  2 ARG     Latin~  1950 Cm,sa~ 4.11e5 5.89e 9 1.15e11 6.54e6         17640.
##  3 ARG     Latin~  1950 Cnstr~ 3.14e5 7.70e 9 1.15e11 6.54e6         17640.
##  4 ARG     Latin~  1950 Firea~ 2.04e5 5.34e 9 1.15e11 6.54e6         17640.
##  5 ARG     Latin~  1950 Gvrnm~ 8.25e5 2.00e10 1.15e11 6.54e6         17640.
##  6 ARG     Latin~  1950 Mnfct~ 1.60e6 3.39e10 1.15e11 6.54e6         17640.
##  7 ARG     Latin~  1950 Mining 3.27e4 1.67e 9 1.15e11 6.54e6         17640.
##  8 ARG     Latin~  1950 Trd,r~ 8.90e5 2.05e10 1.15e11 6.54e6         17640.
##  9 ARG     Latin~  1950 Trn,s~ 4.25e5 6.34e 9 1.15e11 6.54e6         17640.
## 10 ARG     Latin~  1950 Utili~ 3.93e4 4.82e 8 1.15e11 6.54e6         17640.
## # ... with 25,340 more rows, and 4 more variables: empShare <dbl>,
## #   vaShare <dbl>, VAperCapita <dbl>, perCapitaShare <dbl>
…
