Cuide da saúde, pare de fazer loops | AZUL
…
## The following object is masked from 'package:purrr':
## 
##     set_names

## The following object is masked from 'package:tidyr':
## 
##     extract

n <- 1000

(dados_medias <- tibble(media = seq(-5, 5, .01)))

## # A tibble: 1,001 x 1
##    media
##    <dbl>
##  1 -5   
##  2 -4.99
##  3 -4.98
##  4 -4.97
##  5 -4.96
##  6 -4.95
##  7 -4.94
##  8 -4.93
##  9 -4.92
## 10 -4.91
## # … with 991 more rows

lista <- as.list(rep(0, nrow(dados_medias)))

for(i in 1:nrow(dados_medias)) {
  
 lista[[i]] <- rnorm(n = n, 
                     mean = dados_medias$media[i])

}

dados_medias$sims <- lista

(dados_finais <- unnest(dados_medias, sims))

## # A tibble: 1,001,000 x 2
##    media  sims
##    <dbl> <dbl>
##  1    -5 -4.59
##  2    -5 -2.98
##  3    -5 -6.23
##  4    -5 -3.22
##  5    -5 -4.52
##  6    -5 -5.59
##  7    -5 -6.88
##  8    -5 -5.42
##  9    -5 -6.41
## 10    -5 -4.17
## # … with 1,000,990 more rows
…
is.function(`%>%`) # pipe é uma função?

## [1] TRUE

is.function(`%*%`) # multiplicação por matrizes é uma função

## [1] TRUE

O exemplo revisitado

E bem, como podemos substituir o nosso loop de exemplo com esse raciocínio? mutate do dplyr recebe um dataframe e causa uma mutação em seu estado (adiciona ou mata variáveis, em bom português), já unnest puxa dados aninhados para fora. Vamos construir então passo a passo:

tibble(media = seq(1, 5, .001)) 

## # A tibble: 4,001 x 1
##    media
##    <dbl>
##  1  1   
##  2  1.00
##  3  1.00
##  4  1.00
##  5  1.00
##  6  1.00
##  7  1.01
##  8  1.01
##  9  1.01
## 10  1.01
## # … with 3,991 more rows

tibble(media = seq(1, 5, .001)) %>%
  mutate(sims = map(media, ~ rnorm(1000, .x)))

## # A tibble: 4,001 x 2
##    media sims         
##    <dbl> <list>       
##  1  1    <dbl [1,000]>
##  2  1.00 <dbl [1,000]>
##  3  1.00 <dbl [1,000]>
##  4  1.00 <dbl [1,000]>
##  5  1.00 <dbl [1,000]>
##  6  1.00 <dbl [1,000]>
##  7  1.01 <dbl [1,000]>
##  8  1.01 <dbl [1,000]>
##  9  1.01 <dbl [1,000]>
## 10  1.01 <dbl [1,000]>
## # … with 3,991 more rows

tibble(media = seq(1, 5, .001)) %>%
  mutate(sims = map(media, ~ rnorm(1000, .x))) %>%
  unnest(sims)

## # A tibble: 4,001,000 x 2
##    media    sims
##    <dbl>   <dbl>
##  1     1  0.329 
##  2     1  0.321 
##  3     1  1.18  
##  4     1  1.78  
##  5     1 -0.0878
##  6     1 -1.39  
##  7     1  2.38  
##  8     1  1.94  
##  9     1  1.49  
## 10     1  1.71  
## # … with 4,000,990 more rows

Não é tão mais simples que fazer um loop? Existe um custo mental inicial de pensar sobre o código de outro jeito, mas ele logo se paga em soluções mais rápidas e baratas para problemas de todo tipo. Programação funcional te permite ser mais expressivo, fazer mais falando menos.

Lembra que ao invés de usar i para nos referir ao valor da iteração, usamos .x? Eu já te dei os motivos, antes de mostrar como isso tudo se aplica num problema prático muito típico, quero mostrar por quê o .x faz sentido.

Digamos que agora, para cada média sendo usada na simulação dos dados eu queira variar também o desvio-padrão? Estamos simulando dados de uma normal tirado de uma “grade” contendo as combinações de médias e desvios-padrão. Pense um pouco em como abordar esse problema com loops. Você vai adicionar mais uma camada de loop, provavelmente irá se referir ao segundo índice como j e terá que acompanhar mentalmente duas camadas de peças móveis. Não é muito agradável e o problema piora exponencialmente com cada camada extra adicionada.

Uma solução muito mais elegante te aguarda usando map2(), que serve para - como o nome entrga - iterar em dois objetos, pmap() faz isso para um número arbitrário. Para criar a grade com os dados usamos expand_grid(), que gera as combinações. Construindo passo a passo:

expand_grid(media = seq(1, 5, .1), 
            sd = seq(1, 5, .1)) # as combinações

## # A tibble: 1,681 x 2
##    media    sd
##    <dbl> <dbl>
##  1     1   1  
##  2     1   1.1
##  3     1   1.2
##  4     1   1.3
##  5     1   1.4
##  6     1   1.5
##  7     1   1.6
##  8     1   1.7
##  9     1   1.8
## 10     1   1.9
## # … with 1,671 more rows

expand_grid(
  media = seq(1, 5, .1), 
  sd = seq(1, 5, .1)) %>%
    mutate(
      sims = map2(
        .x = media,
        .y = sd,
        ~ rnorm(n = 100, mean = .x, sd = .y))
    ) # criando a coluna

## # A tibble: 1,681 x 3
##    media    sd sims       
##    <dbl> <dbl> <list>     
##  1     1   1   <dbl [100]>
##  2     1   1.1 <dbl [100]>
##  3     1   1.2 <dbl [100]>
##  4     1   1.3 <dbl [100]>
##  5     1   1.4 <dbl [100]>
##  6     1   1.5 <dbl [100]>
##  7     1   1.6 <dbl [100]>
##  8     1   1.7 <dbl [100]>
##  9     1   1.8 <dbl [100]>
## 10     1   1.9 <dbl [100]>
## # … with 1,671 more rows

expand_grid(
  media = seq(1, 5, .1), 
  sd = seq(1, 5, .1)) %>%
    mutate(
      sims = map2(
        .x = media,
        .y = sd,
        ~ rnorm(n = 5, mean = .x, sd = .y))
    ) %>%
    unnest(sims)

## # A tibble: 8,405 x 3
##    media    sd   sims
##    <dbl> <dbl>  <dbl>
##  1     1   1    0.814
##  2     1   1   -0.407
##  3     1   1    0.814
##  4     1   1    2.03 
##  5     1   1    1.87 
##  6     1   1.1  0.273
##  7     1   1.1  1.83 
##  8     1   1.1  1.72 
##  9     1   1.1  3.43 
## 10     1   1.1  0.987
## # … with 8,395 more rows
…
Antes de prosseguir, pense um pouco em como você resolveria isso com loops. Se estiver com paciência, esboce algumas soluções. Vamos gerar dados falsos:

library(lorem)
library(glue)

(tabela <- tibble(
  PL = as.character(glue("{ipsum_starts(30)} {ipsum_starts(30)}")),
  risco = sample(c("alto", "baixo", "médio"), 
                 size = length(PL), 
                 replace = TRUE),
  impacto = sample(c("alto", "baixo", "médio"), 
                   size = length(PL),
                   replace = TRUE)))

## # A tibble: 30 x 3
##    PL                risco impacto
##    <chr>             <chr> <chr>  
##  1 ipsum consectetur baixo alto   
##  2 ipsum sit         médio alto   
##  3 elit elit         alto  baixo  
##  4 ipsum lorem       baixo baixo  
##  5 sit dolor         alto  médio  
##  6 dolor dolor       médio baixo  
##  7 consectetur ipsum baixo médio  
##  8 consectetur amet  alto  alto   
##  9 elit lorem        baixo médio  
## 10 adipiscing amet   médio alto   
## # … with 20 more rows
…
