Classificando distribuições a partir dos momentos · AZUL
…
(tibble(
  dgp = # variável com o nome dos processos, o Y do nosso modelo
   sample(c("rnorm", "runif", "rexp", "rgamma", "rt"), # amostre um de 4 nomes 
          size = 10000, # 100000 vezes
          replace = TRUE), # com substituição
   moments = # variável momentos que irá conter uma lista de dataframes
       map(dgp, # itere sobre o vetor com nomes de dgps
           ~ first_kmoments(process_factory(.x)))) %>% 
  unnest(moments) %>% # desaninha a lista de dataframes
  na.omit() ->
  data)

## # A tibble: 9,989 x 21
##    dgp    moment_1 moment_2 moment_3 moment_4 moment_5 moment_6  moment_7
##    <chr>     <dbl>    <dbl>    <dbl>    <dbl>    <dbl>    <dbl>     <dbl>
##  1 rnorm -3.33e-17    0.415 -4.72e-2  5.16e-1 -3.25e-1 1.18e+ 0 -1.51e+ 0
##  2 rnorm -3.33e-17    0.231 -1.76e-2  1.13e-1 -1.62e-2 7.05e- 2 -1.76e- 2
##  3 rgam…  2.11e-17    1.17   1.33e+0  5.75e+0  1.48e+1 5.05e+ 1  1.60e+ 2
##  4 rnorm -2.13e-16    0.577 -2.24e-1  1.21e+0 -1.62e+0 5.62e+ 0 -1.24e+ 1
##  5 runif  1.11e-17    0.309 -7.47e-2  1.90e-1 -9.56e-2 1.48e- 1 -1.04e- 1
##  6 rt    -1.25e-17    1.34   5.76e-2  4.78e+0  2.34e-1 2.52e+ 1  2.75e+ 0
##  7 rnorm -1.78e-17    4.59  -2.55e-1  6.02e+1 -2.42e+1 1.14e+ 3 -9.81e+ 2
##  8 rgam… -1.28e-17    0.180  1.07e-1  1.62e-1  1.99e-1 2.90e- 1  4.29e- 1
##  9 rgam… -3.55e-16 2596.     1.23e+5  2.54e+7  3.06e+9 5.14e+11  7.98e+13
## 10 runif  4.22e-17    2.02   1.19e-1  6.94e+0  4.37e-1 2.87e+ 1  5.51e- 1
## # … with 9,979 more rows, and 13 more variables: moment_8 <dbl>,
## #   moment_9 <dbl>, moment_10 <dbl>, moment_11 <dbl>, moment_12 <dbl>,
## #   moment_13 <dbl>, moment_14 <dbl>, moment_15 <dbl>, moment_16 <dbl>,
## #   moment_17 <dbl>, moment_18 <dbl>, moment_19 <dbl>, moment_20 <dbl>
…
