Jogo da Velha com Q-Learning · AZUL
…
Outro escalar entre \(0\) e \(1\), determina o peso associado ao futuro. Treinar com um \(\gamma\) mais próximo de \(1\) implica ponderar mais nas regras de resposta o longo prazo.

Em breve aparecerá outro parâmetro, \(\epsilon\). A ideia é que podemos, de vez em quando, aleatoriezar a ação a ser tomada pelo algoritmo para tentar conhecer melhor as consequências de cursos alternativos. A cada iteração, com probabilidade \(1-\epsilon\) podemos aleatorizar a ação, por exemplo.

Os dados são adaptados de Sutton and Barto (2018). Todos são coletados da perspectiva do jogador X - que está contra B e jogou primeiro. X ganha \(+1\) se ganha, \(0\) se empata e \(-1\) se perde. O quadro é preenchido lendo da esquerda para a direita. As primeiras três entradas da string State representam as três primeiras entradas, as três seguintes representam a segunda linha e as últimas três entradas, a última linha do tabuleiro. As ações são sempre “c” seguido de um número. O número sinaliza em qual altura da string devemos inserir a letra. “c3” implica por a letra no canto direito superior do tabuleiro, “c7” no canto inferior esquerdo, “c5” no meio, “c9” no canto inferior direito, etc…

library(dplyr)
library(ReinforcementLearning)

data("tictactoe")

(dados <- as_tibble(tictactoe))

## # A tibble: 406,541 x 4
##    State     Action NextState Reward
##    <chr>     <chr>  <chr>      <dbl>
##  1 ......... c7     ......X.B      0
##  2 ......X.B c6     ...B.XX.B      0
##  3 ...B.XX.B c2     .XBB.XX.B      0
##  4 .XBB.XX.B c8     .XBBBXXXB      0
##  5 .XBBBXXXB c1     XXBBBXXXB      0
##  6 ......... c1     X...B....      0
##  7 X...B.... c4     X..XB.B..      0
##  8 X..XB.B.. c3     XBXXB.B..      0
##  9 XBXXB.B.. c8     XBXXBBBX.      0
## 10 XBXXBBBX. c9     XBXXBBBXX      0
## # … with 406,531 more rows
…
