Verossimilhança da Poisson | AZUL
…
}

fatorial(4) # teste

## [1] 24

A agora a brincar:

(simulacao <- tibble(lambda = seq(25, 100, by = 0.1)) %>%
  mutate(L = map_dbl(
    lambda, 
    function(.x) sum(amostra*log(.x) - .x - log(map_dbl(amostra, fatorial)))
    )))

## # A tibble: 751 x 2
##    lambda       L
##     <dbl>   <dbl>
##  1   25   -11349.
##  2   25.1 -11259.
##  3   25.2 -11170.
##  4   25.3 -11082.
##  5   25.4 -10995.
##  6   25.5 -10908.
##  7   25.6 -10822.
##  8   25.7 -10736.
##  9   25.8 -10652.
## 10   25.9 -10568.
## # … with 741 more rows
…
