R do Zero (2): Manipulando dados com {dplyr} · AZUL
…
                              R do Zero

Qual é a ideia do dplyr? Oferecer uma gramática de manipulação de dados. Temos verbos, funções com nomes muito intuitivos que recebem e devolvem dataframes, para executar tarefas comuns e um operador, o %>% para ligar verbos, bem como uma seleção de advérbios que modificam o comportamento e resultado dos verbos. Algumas outras ferramentas que te oferecem maneiras de expressar operações comuns com dados vêm na biblioteca.

Os que já tiveram contato com python se lembrarão de várias funções do pandas. Por uma série de pequenas vantagens vocês perceberão que o dplyr oferece uma solução mais ergonômica e concisa de manipulação de dados - graças à magia da tidy evaluation, assunto que visitaremos no futuro.

Pacotes trazem dados e funções novas, que por vezes têm o mesmo nome. Para evitar ambiguidade usamos o sinal ::. tibble::glimpse() é a função glimpse() vinda do pacote tibble

library(dplyr)
library(nycflights13)

airports # dados de aeroportos

## # A tibble: 1,458 x 8
##    faa   name                       lat    lon   alt    tz dst   tzone          
##    <chr> <chr>                    <dbl>  <dbl> <dbl> <dbl> <chr> <chr>          
##  1 04G   Lansdowne Airport         41.1  -80.6  1044    -5 A     America/New_Yo…
##  2 06A   Moton Field Municipal A…  32.5  -85.7   264    -6 A     America/Chicago
##  3 06C   Schaumburg Regional       42.0  -88.1   801    -6 A     America/Chicago
##  4 06N   Randall Airport           41.4  -74.4   523    -5 A     America/New_Yo…
##  5 09J   Jekyll Island Airport     31.1  -81.4    11    -5 A     America/New_Yo…
##  6 0A9   Elizabethton Municipal …  36.4  -82.2  1593    -5 A     America/New_Yo…
##  7 0G6   Williams County Airport   41.5  -84.5   730    -5 A     America/New_Yo…
##  8 0G7   Finger Lakes Regional A…  42.9  -76.8   492    -5 A     America/New_Yo…
##  9 0P2   Shoestring Aviation Air…  39.8  -76.6  1000    -5 U     America/New_Yo…
## 10 0S9   Jefferson County Intl     48.1 -123.    108    -8 A     America/Los_An…
## # … with 1,448 more rows
…
select e pull servem para filtrar colunas, a diferença sendo que pull devolve a coluna escolhida como vetor e não como tibble.

select(airports, faa, name, lat, lon, alt) # selecionando apenas código, nome e coordenadas

## # A tibble: 1,458 x 5
##    faa   name                             lat    lon   alt
##    <chr> <chr>                          <dbl>  <dbl> <dbl>
##  1 04G   Lansdowne Airport               41.1  -80.6  1044
##  2 06A   Moton Field Municipal Airport   32.5  -85.7   264
##  3 06C   Schaumburg Regional             42.0  -88.1   801
##  4 06N   Randall Airport                 41.4  -74.4   523
##  5 09J   Jekyll Island Airport           31.1  -81.4    11
##  6 0A9   Elizabethton Municipal Airport  36.4  -82.2  1593
##  7 0G6   Williams County Airport         41.5  -84.5   730
##  8 0G7   Finger Lakes Regional Airport   42.9  -76.8   492
##  9 0P2   Shoestring Aviation Airfield    39.8  -76.6  1000
## 10 0S9   Jefferson County Intl           48.1 -123.    108
## # … with 1,448 more rows

select(airports, -name, -alt) # tirando o nome e altitude do aeroporto com o sinal -

## # A tibble: 1,458 x 6
##    faa     lat    lon    tz dst   tzone              
##    <chr> <dbl>  <dbl> <dbl> <chr> <chr>              
##  1 04G    41.1  -80.6    -5 A     America/New_York   
##  2 06A    32.5  -85.7    -6 A     America/Chicago    
##  3 06C    42.0  -88.1    -6 A     America/Chicago    
##  4 06N    41.4  -74.4    -5 A     America/New_York   
##  5 09J    31.1  -81.4    -5 A     America/New_York   
##  6 0A9    36.4  -82.2    -5 A     America/New_York   
##  7 0G6    41.5  -84.5    -5 A     America/New_York   
##  8 0G7    42.9  -76.8    -5 A     America/New_York   
##  9 0P2    39.8  -76.6    -5 U     America/New_York   
## 10 0S9    48.1 -123.     -8 A     America/Los_Angeles
## # … with 1,448 more rows

is.vector(select(airports, name)) # select() devolve um dataframe

## [1] FALSE

is.vector(pull(airports, name)) # pull() devolve um vetor!

## [1] TRUE

filter, como o nome sugere, filtra os dados dadas condições. mutate altera/mutaciona o estado dos dados e serve para criar ou modificar colunas. slice fatia os dados e devolve apenas certas linhas pedidas. A função ifelse recebe (i) um teste lógico, (ii) o que devolver caso seja verdadeiro e (iii) o que devolver caso seja falso. Usuário de Excel devem reconhecer o funcionamento da função IF/SE.

filter(select(airports,
              name, alt), alt > 500) # apenas aeroportos acima de 500 pés

## # A tibble: 718 x 2
##    name                                   alt
##    <chr>                                <dbl>
##  1 Lansdowne Airport                     1044
##  2 Schaumburg Regional                    801
##  3 Randall Airport                        523
##  4 Elizabethton Municipal Airport        1593
##  5 Williams County Airport                730
##  6 Shoestring Aviation Airfield          1000
##  7 Galt Field Airport                     875
##  8 Port Bucyrus-Crawford County Airport  1003
##  9 Jackson County Airport                 951
## 10 Martin Campbell Field Airport         1789
## # … with 708 more rows

mutate(select(airports,
              name, alt),
       acima500 = if_else(alt > 500, 
                         "Aeroporto está acima de 500 pés", 
                         "Aeroport NÃO está acima de 500 pés"))

## # A tibble: 1,458 x 3
##    name                             alt acima500                          
##    <chr>                          <dbl> <chr>                             
##  1 Lansdowne Airport               1044 Aeroporto está acima de 500 pés   
##  2 Moton Field Municipal Airport    264 Aeroport NÃO está acima de 500 pés
##  3 Schaumburg Regional              801 Aeroporto está acima de 500 pés   
##  4 Randall Airport                  523 Aeroporto está acima de 500 pés   
##  5 Jekyll Island Airport             11 Aeroport NÃO está acima de 500 pés
##  6 Elizabethton Municipal Airport  1593 Aeroporto está acima de 500 pés   
##  7 Williams County Airport          730 Aeroporto está acima de 500 pés   
##  8 Finger Lakes Regional Airport    492 Aeroport NÃO está acima de 500 pés
##  9 Shoestring Aviation Airfield    1000 Aeroporto está acima de 500 pés   
## 10 Jefferson County Intl            108 Aeroport NÃO está acima de 500 pés
## # … with 1,448 more rows
…
Ou usar o pipe, que recebe um objeto e passa ele como primeiro parâmetro na função seguinte:

a %>%
funcao1() %>%
funcao2() %>%
funcao3() %>%
funcao4()

Se quisermos, por exemplo, o nome e fuso-horário apenas dos aeroportos a mais de 500 pés de altitude, então:

airports %>%
  filter(alt > 500) %>%
  select(name, tz)

## # A tibble: 718 x 2
##    name                                    tz
##    <chr>                                <dbl>
##  1 Lansdowne Airport                       -5
##  2 Schaumburg Regional                     -6
##  3 Randall Airport                         -5
##  4 Elizabethton Municipal Airport          -5
##  5 Williams County Airport                 -5
##  6 Shoestring Aviation Airfield            -5
##  7 Galt Field Airport                      -6
##  8 Port Bucyrus-Crawford County Airport    -5
##  9 Jackson County Airport                  -5
## 10 Martin Campbell Field Airport           -5
## # … with 708 more rows

A função stringr::str_detect detecta padrões dentro de strings. Por exemplo: str_detect("texto", "x") retorna TRUE porque de fato a letra “x” aparece em “texto”. Se quisermos classificar os aeroportos anteriores entre internacionais ou não poderíamos fazer:

library(stringr)

airports %>%
  filter(alt > 500) %>%
  select(name, tz) %>%
  mutate(tipo = if_else(condition = str_detect(name, "Int"),
                        true = "Internacional",
                        false = "Doméstico")) 

## # A tibble: 718 x 3
##    name                                    tz tipo     
##    <chr>                                <dbl> <chr>    
##  1 Lansdowne Airport                       -5 Doméstico
##  2 Schaumburg Regional                     -6 Doméstico
##  3 Randall Airport                         -5 Doméstico
##  4 Elizabethton Municipal Airport          -5 Doméstico
##  5 Williams County Airport                 -5 Doméstico
##  6 Shoestring Aviation Airfield            -5 Doméstico
##  7 Galt Field Airport                      -6 Doméstico
##  8 Port Bucyrus-Crawford County Airport    -5 Doméstico
##  9 Jackson County Airport                  -5 Doméstico
## 10 Martin Campbell Field Airport           -5 Doméstico
## # … with 708 more rows

arrange recebe nomes de colunas do dataframe e rearranja os dados em ordem crescente. Se quisermos em ordem decrescente, precisamos de desc().

airports %>%
  filter(alt > 500) %>%
  select(name, tz) %>%
  mutate(tipo = if_else(condition = str_detect(name, "Int"),
                        true = "Internacional",
                        false = "Doméstico")) %>%
  arrange(name) # ordenados alfabeticamente

## # A tibble: 718 x 3
##    name                                         tz tipo         
##    <chr>                                     <dbl> <chr>        
##  1 Aberdeen Regional Airport                    -6 Doméstico    
##  2 Abilene Rgnl                                 -6 Doméstico    
##  3 Abraham Lincoln Capital                      -6 Doméstico    
##  4 Addison                                      -6 Doméstico    
##  5 Adirondack Regional Airport                  -5 Doméstico    
##  6 Akron Canton Regional Airport                -5 Doméstico    
##  7 Akron Fulton Intl                            -5 Internacional
##  8 Alamogordo White Sands Regional Airport      -7 Doméstico    
##  9 Albuquerque International Sunport            -7 Internacional
## 10 Alexander Field South Wood County Airport    -6 Doméstico    
## # … with 708 more rows

airports %>%
  filter(alt > 500) %>%
  select(name, tz) %>%
  mutate(tipo = if_else(condition = str_detect(name, "Int"),
                        true = "Internacional",
                        false = "Doméstico")) %>%
  arrange(desc(name)) # em ordem inversa à alfabética

## # A tibble: 718 x 3
##    name                                    tz tipo     
##    <chr>                                <dbl> <chr>    
##  1 Youngstown Warren Rgnl                  -5 Doméstico
##  2 Youngstown Elser Metro Airport          -5 Doméstico
##  3 Yellowstone Rgnl                        -7 Doméstico
##  4 Yellowstone Airport                     -7 Doméstico
##  5 Yeager                                  -5 Doméstico
##  6 Yampa Valley                            -7 Doméstico
##  7 Yakima Air Terminal McAllister Field    -8 Doméstico
##  8 Wright Patterson Afb                    -5 Doméstico
##  9 Worland Municipal Airport               -7 Doméstico
## 10 Worcester Regional Airport              -5 Doméstico
## # … with 708 more rows
…
## Warning in stri_detect_regex(string, pattern, negate = negate, opts_regex =
## opts(pattern)): longer object length is not a multiple of shorter object length

## # A tibble: 718 x 3
##    name                                    tz tipo     
##    <chr>                                <dbl> <chr>    
##  1 Lansdowne Airport                       -5 Pequeno  
##  2 Schaumburg Regional                     -6 Regional 
##  3 Randall Airport                         -5 Pequeno  
##  4 Elizabethton Municipal Airport          -5 Municipal
##  5 Williams County Airport                 -5 Condado  
##  6 Shoestring Aviation Airfield            -5 Pequeno  
##  7 Galt Field Airport                      -6 Pequeno  
##  8 Port Bucyrus-Crawford County Airport    -5 Condado  
##  9 Jackson County Airport                  -5 Condado  
## 10 Martin Campbell Field Airport           -5 Pequeno  
## # … with 708 more rows
…
## # A tibble: 1 x 4
##   atraso_medio desviopadrao_atraso atraso_partida_medio distancia_media
##          <dbl>               <dbl>                <dbl>           <dbl>
## 1         6.90                44.6                 12.6           1040.

Advérbios

Verbos como mutate e filter realizam operações em um dataframe inteiro, mas de vez em quando queremos sumários ou transformações de dados sensíveis em recortes específicos. O advérbio mais importante do dplyr - e o único que abordaremos por um tempo - é group_by().

flights %>%
  group_by(origin) 

## # A tibble: 336,776 x 19
## # Groups:   origin [3]
##     year month   day dep_time sched_dep_time dep_delay arr_time sched_arr_time
##    <int> <int> <int>    <int>          <int>     <dbl>    <int>          <int>
##  1  2013     1     1      517            515         2      830            819
##  2  2013     1     1      533            529         4      850            830
##  3  2013     1     1      542            540         2      923            850
##  4  2013     1     1      544            545        -1     1004           1022
##  5  2013     1     1      554            600        -6      812            837
##  6  2013     1     1      554            558        -4      740            728
##  7  2013     1     1      555            600        -5      913            854
##  8  2013     1     1      557            600        -3      709            723
##  9  2013     1     1      557            600        -3      838            846
## 10  2013     1     1      558            600        -2      753            745
## # … with 336,766 more rows, and 11 more variables: arr_delay <dbl>,
## #   carrier <chr>, flight <int>, tailnum <chr>, origin <chr>, dest <chr>,
## #   air_time <dbl>, distance <dbl>, hour <dbl>, minute <dbl>, time_hour <dttm>

Agora nós não somos apenas informados de que temos \(336776\) registros de vôos, como também que temos \(3\) grupos únicos que dividem perfeitamente os dados. Podemos agrupar por mais variáveis:

flights %>%
  group_by(origin, tailnum) # aeroporto de origem do vôo e número de cauda da aeronave 

## # A tibble: 336,776 x 19
## # Groups:   origin, tailnum [7,944]
##     year month   day dep_time sched_dep_time dep_delay arr_time sched_arr_time
##    <int> <int> <int>    <int>          <int>     <dbl>    <int>          <int>
##  1  2013     1     1      517            515         2      830            819
##  2  2013     1     1      533            529         4      850            830
##  3  2013     1     1      542            540         2      923            850
##  4  2013     1     1      544            545        -1     1004           1022
##  5  2013     1     1      554            600        -6      812            837
##  6  2013     1     1      554            558        -4      740            728
##  7  2013     1     1      555            600        -5      913            854
##  8  2013     1     1      557            600        -3      709            723
##  9  2013     1     1      557            600        -3      838            846
## 10  2013     1     1      558            600        -2      753            745
## # … with 336,766 more rows, and 11 more variables: arr_delay <dbl>,
## #   carrier <chr>, flight <int>, tailnum <chr>, origin <chr>, dest <chr>,
## #   air_time <dbl>, distance <dbl>, hour <dbl>, minute <dbl>, time_hour <dttm>
…
Digamos que você esteja interessado apenas em recuperar a identificação dessas aeronaves que cumprem os requisitos - neste caso, estarem entre as 10 primeiras em números de vôos distintos. Esse tipo de operação em que manipulamos dados, filtramos por certos critérios e então pegamos algum tipo de identificação de quem/o que cumpre tais critérios é particularmente comum trabalhando em grandes bancos de dados.

Note que temos outro dataframe apenas com dados das aeronaves em si:

planes

## # A tibble: 3,322 x 9
##    tailnum  year type          manufacturer   model  engines seats speed engine 
##    <chr>   <int> <chr>         <chr>          <chr>    <int> <int> <int> <chr>  
##  1 N10156   2004 Fixed wing m… EMBRAER        EMB-1…       2    55    NA Turbo-…
##  2 N102UW   1998 Fixed wing m… AIRBUS INDUST… A320-…       2   182    NA Turbo-…
##  3 N103US   1999 Fixed wing m… AIRBUS INDUST… A320-…       2   182    NA Turbo-…
##  4 N104UW   1999 Fixed wing m… AIRBUS INDUST… A320-…       2   182    NA Turbo-…
##  5 N10575   2002 Fixed wing m… EMBRAER        EMB-1…       2    55    NA Turbo-…
##  6 N105UW   1999 Fixed wing m… AIRBUS INDUST… A320-…       2   182    NA Turbo-…
##  7 N107US   1999 Fixed wing m… AIRBUS INDUST… A320-…       2   182    NA Turbo-…
##  8 N108UW   1999 Fixed wing m… AIRBUS INDUST… A320-…       2   182    NA Turbo-…
##  9 N109UW   1999 Fixed wing m… AIRBUS INDUST… A320-…       2   182    NA Turbo-…
## 10 N110UW   1999 Fixed wing m… AIRBUS INDUST… A320-…       2   182    NA Turbo-…
## # … with 3,312 more rows
…
